%YAML 1.1
%TAG !u! tag:unity3d.com,2011:
--- !u!114 &11400000
MonoBehaviour:
  m_ObjectHideFlags: 0
  m_CorrespondingSourceObject: {fileID: 0}
  m_PrefabInstance: {fileID: 0}
  m_PrefabAsset: {fileID: 0}
  m_GameObject: {fileID: 0}
  m_Enabled: 1
  m_EditorHideFlags: 0
  m_Script: {fileID: 11500000, guid: 982a5cfe8d0836944821b322fd2fa31e, type: 3}
  m_Name: Parting3
  m_EditorClassIdentifier: 
  storyText: "The ceiling slowly rises and at the end of the corridor you can stand
    upright. Again there is a corridor to the left and one to the right.\r\n\r\nWhat
    would you like to do?\r\n\r\n1: Go left\r\n\r2: Go right"
  nextStates:
  - {fileID: 11400000, guid: 1326ca10746adad44aef8169981d9554, type: 2}
  - {fileID: 11400000, guid: 9d419bda9370507498a07feee36ef95c, type: 2}
